Chapter 3 Variance-ratio test of asset prices | The WRDS PostgreSQL database
…
weekly <-
    all_days %>%
    left_join(dsic, by="caldt") %>%
    arrange(caldt) %>%
    mutate(ewindd = coalesce(ewindd, lead(ewindd)),
           is_wed = date_part('dow', caldt)==3) %>%
    filter(is_wed, caldt >= first_date) %>%
    select(caldt, ewindd) %>%
    collect() 

rs <- dbDisconnect(pg)

weekly

## # A tibble: 1,217 x 2
##    caldt      ewindd
##    <date>      <dbl>
##  1 1962-09-05   19.1
##  2 1962-09-12   19.2
##  3 1962-09-19   19.1
##  4 1962-09-26   18.3
##  5 1962-10-03   18.1
##  6 1962-10-10   18.3
##  7 1962-10-17   18.1
##  8 1962-10-24   17.1
##  9 1962-10-31   17.6
## 10 1962-11-07   18.2
## # … with 1,207 more rows
…
